// Jest Snapshot v1, https://goo.gl/fbAQLP

exports[`withBlem 1`] = `
Array [
  <div
    className="MyComponent__element"
  >
    this is an element
  </div>,
  <div
    className="MyComponent__element2 MyComponent__element2--modifier"
  >
    this is an element with a modifier
  </div>,
  <strong>
    test
  </strong>,
]
`;

exports[`withBlem, with refs 1`] = `
<div>
  <strong
    className="Component__child Component__child--0"
  >
    X
  </strong>
  <strong
    className="Component__child Component__child--1"
  >
    Y
  </strong>
  <strong
    className="Component__child Component__child--2"
  >
    Z
  </strong>
</div>
`;
